\relax 
\providecommand\hyper@newdestlabel[2]{}
\providecommand\HyperFirstAtBeginDocument{\AtBeginDocument}
\HyperFirstAtBeginDocument{\ifx\hyper@anchor\@undefined
\global\let\oldcontentsline\contentsline
\gdef\contentsline#1#2#3#4{\oldcontentsline{#1}{#2}{#3}}
\global\let\oldnewlabel\newlabel
\gdef\newlabel#1#2{\newlabelxx{#1}#2}
\gdef\newlabelxx#1#2#3#4#5#6{\oldnewlabel{#1}{{#2}{#3}}}
\AtEndDocument{\ifx\hyper@anchor\@undefined
\let\contentsline\oldcontentsline
\let\newlabel\oldnewlabel
\fi}
\fi}
\global\let\hyper@last\relax 
\gdef\HyperFirstAtBeginDocument#1{#1}
\providecommand\HyField@AuxAddToFields[1]{}
\providecommand\HyField@AuxAddToCoFields[2]{}
\orcidauthor{0000-0003-0984-1984}{Javier José Clavijo}
\creditauthor{ Algorithm, data processing, software development, data analysis, report writing }{Javier José Clavijo}
\creditauthor{ Mathematical formulation, report revision }{Julián Facundo Martínez}
\newlabel{section:trainingEvaluation}{{S.1}{1}{Supplementary Figures, Training, and complementary evaluation}{section.1}{}}
\@writefile{toc}{\contentsline {section}{\numberline {S.1}Supplementary Figures, Training, and complementary evaluation }{1}{section.1}\protected@file@percent }
\@writefile{toc}{\contentsline {subsection}{\numberline {S.1.1}Training process with real data.}{1}{subsection.1.1}\protected@file@percent }
\newlabel{training_real}{{S.1.1}{1}{Training process with real data}{subsection.1.1}{}}
\@writefile{toc}{\contentsline {subsection}{\numberline {S.1.2}Complementary estimator comparisons}{1}{subsection.1.2}\protected@file@percent }
\newlabel{sup:meanBased}{{18}{1}{}{}{}}
\newlabel{ssec:recapply}{{S.1.3}{1}{Recursive Application}{subsection.1.3}{}}
\@writefile{toc}{\contentsline {subsection}{\numberline {S.1.3}Recursive Application }{1}{subsection.1.3}\protected@file@percent }
\citation{vigny2010MwMaule2011}
\@writefile{toc}{\contentsline {subsection}{\numberline {S.1.4}Results for Muisne and Maule event}{2}{subsection.1.4}\protected@file@percent }
\citation{vigny2010MwMaule2011}
\@writefile{lof}{\contentsline {figure}{\numberline {S1}{\ignorespaces  Generation and global loss (see \ref  {training_real}) for each training step, evaluated on the Train and Test sets. }}{3}{figure.1}\protected@file@percent }
\newlabel{fig:loss}{{S1}{3}{Generation and global loss (see \ref {training_real}) for each training step, evaluated on the Train and Test sets}{figure.1}{}}
\@writefile{lof}{\contentsline {figure}{\numberline {S2}{\ignorespaces  Generation and global loss (see \ref  {training_real}) for each training step, evaluated on the Train and Test sets for the model trained as described in \ref  {destructive_data_augmentation}. }}{3}{figure.2}\protected@file@percent }
\newlabel{fig:augloss}{{S2}{3}{Generation and global loss (see \ref {training_real}) for each training step, evaluated on the Train and Test sets for the model trained as described in \ref {destructive_data_augmentation}}{figure.2}{}}
\@writefile{lof}{\contentsline {figure}{\numberline {S3}{\ignorespaces  Generation and global loss (see \ref  {training_real}) for each training step, evaluated on the Train and Test sets for the model presented in \ref  {learning_labels}. First row) provenance prediction output; Second row) label prediction output. }}{3}{figure.3}\protected@file@percent }
\newlabel{fig:altloss}{{S3}{3}{Generation and global loss (see \ref {training_real}) for each training step, evaluated on the Train and Test sets for the model presented in \ref {learning_labels}. First row) provenance prediction output; Second row) label prediction output}{figure.3}{}}
\@writefile{lof}{\contentsline {figure}{\numberline {S4}{\ignorespaces  Regularization loss for each training step, for the model presented in \ref  {learning_labels}. Evaluation done on the Train and Test sets. }}{3}{figure.4}\protected@file@percent }
\newlabel{fig:regloss}{{S4}{3}{Regularization loss for each training step, for the model presented in \ref {learning_labels}. Evaluation done on the Train and Test sets}{figure.4}{}}
\@writefile{lof}{\contentsline {figure}{\numberline {S5}{\ignorespaces  Samples from the $\mathcal  {D}^{\star ,1}$ group [green] and the output of $g_\theta (\cdot )$ for those samples [dark blue] after 1000 steps of training for the model presented in \ref  {learning_labels}. The red bars indicate the scale of 1cm (first twelve lines), 10cm (following three lines) or 1m (last line). }}{3}{figure.5}\protected@file@percent }
\newlabel{fig:jumps}{{S5}{3}{Samples from the $\mathcal {D}^{\star ,1}$ group [green] and the output of $g_\theta (\cdot )$ for those samples [dark blue] after 1000 steps of training for the model presented in \ref {learning_labels}. The red bars indicate the scale of 1cm (first twelve lines), 10cm (following three lines) or 1m (last line)}{figure.5}{}}
\@writefile{lof}{\contentsline {figure}{\numberline {S6}{\ignorespaces 2D histogram for comparison between estimated amplitudes and a mean-based displacement estimator for individual timeseries, channels East and North. The dashed red line marks the centimeter amplitude. }}{4}{figure.6}\protected@file@percent }
\newlabel{fig:promedios}{{S6}{4}{2D histogram for comparison between estimated amplitudes and a mean-based displacement estimator for individual timeseries, channels East and North. The dashed red line marks the centimeter amplitude}{figure.6}{}}
\@writefile{lof}{\contentsline {figure}{\numberline {S7}{\ignorespaces 2D histogram for comparison between estimated amplitudes and a mean-based displacement estimator for individual timeseries, channel Up. The dashed red line marks the centimeter amplitude.}}{4}{figure.7}\protected@file@percent }
\newlabel{fig:promediosU}{{S7}{4}{2D histogram for comparison between estimated amplitudes and a mean-based displacement estimator for individual timeseries, channel Up. The dashed red line marks the centimeter amplitude}{figure.7}{}}
\@writefile{lof}{\contentsline {figure}{\numberline {S8}{\ignorespaces 2D histogram for comparison between estimated amplitudes and a mean-based displacement estimator for individual timeseries, channel Up. The dashed red line marks the centimeter amplitude.}}{4}{figure.8}\protected@file@percent }
\newlabel{fig:promediosUaug}{{S8}{4}{2D histogram for comparison between estimated amplitudes and a mean-based displacement estimator for individual timeseries, channel Up. The dashed red line marks the centimeter amplitude}{figure.8}{}}
\@writefile{lof}{\contentsline {figure}{\numberline {S9}{\ignorespaces  MSE for the model trained with real data and evaluated on the synthetic datasets. Samples splitted in offset amplitude ranges. Solid line corresponds to the dataset including postseismic transients while dashed line to the one without it. }}{4}{figure.9}\protected@file@percent }
\newlabel{fig:MSE_Real}{{S9}{4}{MSE for the model trained with real data and evaluated on the synthetic datasets. Samples splitted in offset amplitude ranges. Solid line corresponds to the dataset including postseismic transients while dashed line to the one without it}{figure.9}{}}
\@writefile{lof}{\contentsline {figure}{\numberline {S10}{\ignorespaces  RMSE of the horizontal channels for the model trained with real data and evaluated on the synthetic datasets. Metrics are computed recursively for passes 1 to 50 [color ramp] each 10 training steps. }}{4}{figure.10}\protected@file@percent }
\newlabel{fig:MSE_Real_recursive}{{S10}{4}{RMSE of the horizontal channels for the model trained with real data and evaluated on the synthetic datasets. Metrics are computed recursively for passes 1 to 50 [color ramp] each 10 training steps}{figure.10}{}}
\@writefile{lof}{\contentsline {figure}{\numberline {S11}{\ignorespaces 2D histogram for comparison between estimated amplitudes and hector maximum likelihood estimation for individual timeseries, channel Up. Computed with recursive application of the generator, n=50.}}{4}{figure.11}\protected@file@percent }
\newlabel{fig:hectorUrec}{{S11}{4}{2D histogram for comparison between estimated amplitudes and hector maximum likelihood estimation for individual timeseries, channel Up. Computed with recursive application of the generator, n=50}{figure.11}{}}
\@writefile{lof}{\contentsline {figure}{\numberline {S12}{\ignorespaces  2d Histogram of estimation errors over synthetic datasets when using recursive application (n=50). Positive error is offset overetimation, negative is underestimation. Figure similar to \ref  {fig:synthhist}. }}{4}{figure.12}\protected@file@percent }
\newlabel{fig:histEE_rec}{{S12}{4}{2d Histogram of estimation errors over synthetic datasets when using recursive application (n=50). Positive error is offset overetimation, negative is underestimation. Figure similar to \ref {fig:synthhist}}{figure.12}{}}
\@writefile{lof}{\contentsline {figure}{\numberline {S13}{\ignorespaces Left) Estimation of displacement for the 2010-02-27 8.8Mw Maule event. Right) Displacements published on \cite  {vigny2010MwMaule2011} \footnotesize  Attribution: Background modified from Map tiles by Stamen Design CC BY 3.0 -- Base Map Data (C) OpenStreetMap contributors}}{4}{figure.13}\protected@file@percent }
\newlabel{fig:EventMap2}{{S13}{4}{Left) Estimation of displacement for the 2010-02-27 8.8Mw Maule event. Right) Displacements published on \cite {vigny2010MwMaule2011} \footnotesize Attribution: Background modified from Map tiles by Stamen Design CC BY 3.0 -- Base Map Data (C) OpenStreetMap contributors}{figure.13}{}}
\@writefile{lof}{\contentsline {figure}{\numberline {S14}{\ignorespaces Estimation of displacement for the 2016-04-16 7.8 Mw Muisne event. \footnotesize  Attribution: Background modified from Map tiles by Stamen Design CC BY 3.0 -- Base Map Data (C) OpenStreetMap contributors}}{4}{figure.14}\protected@file@percent }
\newlabel{fig:EventMap3}{{S14}{4}{Estimation of displacement for the 2016-04-16 7.8 Mw Muisne event. \footnotesize Attribution: Background modified from Map tiles by Stamen Design CC BY 3.0 -- Base Map Data (C) OpenStreetMap contributors}{figure.14}{}}
\gdef \LT@i {\LT@entry 
    {2}{112.54999pt}\LT@entry 
    {1}{55.33pt}\LT@entry 
    {1}{47.00998pt}\LT@entry 
    {1}{0.0pt}}
\newlabel{section:supplementary2}{{S.2}{5}{Bibliographic cases review of seismic event detection with respect to distance}{section.2}{}}
\@writefile{toc}{\contentsline {section}{\numberline {S.2}Bibliographic cases review of seismic event detection with respect to distance. }{5}{section.2}\protected@file@percent }
\newlabel{s:scalinglaws}{{8}{5}{}{}{}}
\@writefile{lot}{\contentsline {table}{\numberline {S1}{Bibliographic review of reported co-seismic slip detection distances.}}{6}{table.1}\protected@file@percent }
\@writefile{lof}{\contentsline {figure}{\numberline {S15}{\ignorespaces  Distance of farthest offset detected with respect to event magnitude (dots) for the analyzed publications. Shaded areas corresponds to: Blue) samples labelled as not having position offset, Orange) samples labelled as having position offset, Gray) samples discarded. The dashed line is the scaling law used by the Nevada Geodesy Laboratory. Plots are in linear (left) and logarithmic scale (right).}}{7}{figure.15}\protected@file@percent }
\newlabel{fig:scaling}{{S15}{7}{Distance of farthest offset detected with respect to event magnitude (dots) for the analyzed publications. Shaded areas corresponds to: Blue) samples labelled as not having position offset, Orange) samples labelled as having position offset, Gray) samples discarded. The dashed line is the scaling law used by the Nevada Geodesy Laboratory. Plots are in linear (left) and logarithmic scale (right)}{figure.15}{}}
\citation{bosFastErrorAnalysis2013}
\csxdef{lastpage}{13}
\newlabel{section:synthetic}{{S.3}{13}{Synthetic data generation and experiments}{section.3}{}}
\@writefile{toc}{\contentsline {section}{\numberline {S.3}Synthetic data generation and experiments. }{13}{section.3}\protected@file@percent }
\@writefile{toc}{\contentsline {subsection}{\numberline {S.3.1}GANs trained with synthetic data}{13}{subsection.3.1}\protected@file@percent }
\@writefile{lof}{\contentsline {figure}{\numberline {S16}{\ignorespaces rMSE over both synthetic datasets for generators trained with each one of the datasets. Data was split in three ranges of offset amplitudes and plotted in separated panels.}}{14}{figure.16}\protected@file@percent }
\newlabel{fig:MSE_synth}{{S16}{14}{rMSE over both synthetic datasets for generators trained with each one of the datasets. Data was split in three ranges of offset amplitudes and plotted in separated panels}{figure.16}{}}
\@writefile{lof}{\contentsline {figure}{\numberline {S17}{\ignorespaces 2D histogram of estimation error for synthetic data on synthetic data trained models. Error sign indicates Over(+)/Under(-)estimation. Upper panels: data without postseismic transients, Lower panels: data with postseismic transients. }}{14}{figure.17}\protected@file@percent }
\newlabel{fig:EEhist_Synth}{{S17}{14}{2D histogram of estimation error for synthetic data on synthetic data trained models. Error sign indicates Over(+)/Under(-)estimation. Upper panels: data without postseismic transients, Lower panels: data with postseismic transients}{figure.17}{}}
\@writefile{lof}{\contentsline {figure}{\numberline {S18}{\ignorespaces 2D histogram of estimation error for synthetic data on synthetic data trained models applied recursively with n=50. Error sign indicates Over(+)/Under(-)estimation. Upper panels: data without postseismic transients, Lower panels: data with postseismic transients. }}{14}{figure.18}\protected@file@percent }
\newlabel{fig:EEhist_Synth_rec}{{S18}{14}{2D histogram of estimation error for synthetic data on synthetic data trained models applied recursively with n=50. Error sign indicates Over(+)/Under(-)estimation. Upper panels: data without postseismic transients, Lower panels: data with postseismic transients}{figure.18}{}}
\gdef \@abspage@last{14}
