\citation{larsenGlobalPositioningSystem1992}
\citation{hudnutCoseismicDisplacements19921994}
\citation{tsujiCoseismicCrustalDeformation1995}
\citation{hashimotoCoseismicDisplacements19951996}
\citation{hudnutCoseismicDisplacements19941996}
\citation{rueggMWAntofagastaNorth1996}
\citation{melbourneGeodeticSignatureM81997}
\citation{wdowinskiSouthernCaliforniaPermanent1997}
\citation{stramondoSeptember2619971999}
\citation{yangGeodeticallyObservedSurface2000}
\citation{ayhanKinematicsMw122001}
\citation{reilingerCoseismicPostseismicFault2000}
\citation{huttonSlipKinematicsDynamics2001}
\citation{johnsonFaultGeometrySlip2001}
\citation{yagiCoseismicSlipPostseismic2001}
\citation{yuPreseismicDeformationCoseismic2001}
\citation{burgmannDeformation12November2002}
\citation{jadeEstimatesCoseismicDisplacement2002a}
\citation{agnewCoseismicDisplacementsHector2002}
\citation{kaverinaCombinedInversionSeismic2002}
\citation{klotzGPSderivedDeformationCentral1999}
\citation{larsonUsing1HzGPS2003}
\citation{pedersenFaultSlipDistribution2003}
\citation{yagiCoseismicSlipPostseismic2003}
\citation{miura2003M8TokachiOki2004}
\citation{yellesCoseismicDeformationMay2004a}
\citation{jadeCoseismicPostseismicDisplacements2005}
\citation{perfettiniGeodeticDisplacementsAftershocks2005a}
\citation{vignyInsight2004SumatraAndaman2005}
\citation{hashimotoCrustalDeformationsAssociated2006}
\citation{kreemerGlobalDeformationGreat2006}
\citation{kreemerCoPostseismicDeformation2006}
\citation{langbeinCoseismicInitialPostseismic2006}
\citation{miuraCoPostseismicSlip2006}
\citation{ohtaLargeSurfaceWave2006}
\citation{subaryaPlateboundaryDeformationAssociated2006}
\citation{chingCoseismicSourceModel2007}
\citation{emoreRecoveringSeismicDisplacements2007}
\citation{koncaRuptureKinematics20052007a}
\citation{bilichGPSSeismologyApplication2008}
\citation{ohtaCoseismicFaultModel2008}
\citation{anzideiCoseismicDeformationDestructive2009}
\citation{hsuCoseismicPostseismicDeformation2009}
\citation{diaoSlipModel20082010}
\citation{jinCoseismicIonosphericDeformation2010}
\citation{vigny2010MwMaule2011}
\citation{zhouGeodeticObservationsDetecting2012}
\citation{shestakovAnalysisFarfieldCrustal2012}
\citation{serpelloniFaultGeometryCoseismicslip2012}
\citation{hill2010MwMentawai2012}
\citation{yadavCoseismicOffsetsDue2013b}
\citation{liRealtimeHighrateCoseismic2013a}
\citation{branzantiGPSNearrealtimeCoseismic2013a}
\citation{bedfordHighresolutionTimevariableAfterslip2013}
\citation{minsonBayesianInversionFinite2014a}
\citation{jiangGPSConstrainedCoseismic2014a}
\citation{nykolaishenGPSObservationsCrustal2015}
\citation{melgarSeismogeodesy2014Mw62015}
\citation{hill2012MwWharton2015}
\citation{fengUnifiedGPSbasedEarthquake2015}
\citation{yue2016KumamotoMw2017}
\citation{liuRuptureFeatures20162017}
\citation{kleinComprehensiveAnalysisIllapel2017}
\citation{huangCoseismicDeformationTriggered2017}
\citation{gengIntegratingGPSGLONASS2017a}
\citation{tiryakiogluSlipDistributionSource2018}
\citation{scognamiglioComplexFaultGeometry2018}
\citation{liuSourceCharacteristics20172019}
\bibstyle{cas-model2-names}
\bibdata{bibliography_q}
\bibcite{agnewCoseismicDisplacementsHector2002}{{52}{2002}{{Agnew et~al.}}{{Agnew, Owen, Shen, Anderson, Svarc, Johnson, Austin and Reilinger}}}
\bibcite{anzideiCoseismicDeformationDestructive2009}{{53}{2009}{{Anzidei et~al.}}{{Anzidei, Boschi, Cannelli, Devoti, Esposito, Galvani, Melini, Pietrantonio, Riguzzi, Sepe and Serpelloni}}}
\bibcite{ayhanKinematicsMw122001}{{54}{2001}{{Ayhan et~al.}}{{Ayhan, B{\"u}rgmann, McClusky, Lenk, Aktug, Herece and Reilinger}}}
\bibcite{bedfordHighresolutionTimevariableAfterslip2013}{{55}{2013}{{Bedford et~al.}}{{Bedford, Moreno, Baez, Lange, Tilmann, Rosenau, Heidbach, Oncken, Bartsch, Rietbrock, Tassara, Bevis and Vigny}}}
\bibcite{bilichGPSSeismologyApplication2008}{{56}{2008}{{Bilich et~al.}}{{Bilich, Cassidy and Larson}}}
\bibcite{branzantiGPSNearrealtimeCoseismic2013a}{{57}{2013}{{Branzanti et~al.}}{{Branzanti, Colosimo, Crespi and Mazzoni}}}
\bibcite{burgmannDeformation12November2002}{{58}{2002}{{B{\"u}rgmann et~al.}}{{B{\"u}rgmann, Ayhan, Fielding, Wright, McClusky, Aktug, Demir, Lenk and T{\"u}rkezer}}}
\bibcite{chingCoseismicSourceModel2007}{{59}{2007}{{Ching et~al.}}{{Ching, Rau and Zeng}}}
\bibcite{diaoSlipModel20082010}{{60}{2010}{{Diao et~al.}}{{Diao, Xiong, Wang, Zheng and Hsu}}}
\bibcite{emoreRecoveringSeismicDisplacements2007}{{61}{2007}{{Emore et~al.}}{{Emore, Haase, Choi, Larson and Yamagiwa}}}
\bibcite{fengUnifiedGPSbasedEarthquake2015}{{62}{2015}{{Feng et~al.}}{{Feng, Hill, Banerjee, Hermawan, Tsang, Natawidjaja, Suwargadi and Sieh}}}
\bibcite{gengIntegratingGPSGLONASS2017a}{{63}{2017}{{Geng et~al.}}{{Geng, Jiang and Liu}}}
\bibcite{hashimotoCrustalDeformationsAssociated2006}{{64}{2006}{{Hashimoto et~al.}}{{Hashimoto, Choosakul, Hashizume, Takemoto, Takiguchi, Fukuda and Fujimori}}}
\bibcite{hashimotoCoseismicDisplacements19951996}{{65}{1996}{{Hashimoto et~al.}}{{Hashimoto, Sagiya, Tsuji, Hatanaka and Tada}}}
\bibcite{hill2010MwMentawai2012}{{66}{2012}{{Hill et~al.}}{{Hill, Borrero, Huang, Qiu, Banerjee, Natawidjaja, Elosegui, Fritz, Suwargadi, Pranantyo, Li, Macpherson, Skanavis, Synolakis and Sieh}}}
\bibcite{hill2012MwWharton2015}{{67}{2015}{{Hill et~al.}}{{Hill, Yue, Barbot, Lay, Tapponnier, Hermawan, Hubbard, Banerjee, Feng, Natawidjaja and Sieh}}}
\bibcite{hsuCoseismicPostseismicDeformation2009}{{68}{2009}{{Hsu et~al.}}{{Hsu, Yu and Chen}}}
\bibcite{huangCoseismicDeformationTriggered2017}{{69}{2017}{{Huang et~al.}}{{Huang, Fielding, Liang, Milillo, Bekaert, Dreger and Salzer}}}
\bibcite{hudnutCoseismicDisplacements19921994}{{70}{1994}{{Hudnut et~al.}}{{Hudnut, Bock, Cline, Fang, Feng, Freymueller, Ge, Gross, Jackson, Kim, King, Langbein, Larsen, Lisowski, Shen, Svarc and Zhang}}}
\bibcite{hudnutCoseismicDisplacements19941996}{{71}{1996}{{Hudnut et~al.}}{{Hudnut, Murray, Shen, McClusky, King, Herring, Hager, Feng, Fang, Donnellan and Bock}}}
\bibcite{huttonSlipKinematicsDynamics2001}{{72}{2001}{{Hutton et~al.}}{{Hutton, DeMets, S{\'a}nchez, Su{\'a}rez and Stock}}}
\bibcite{jadeCoseismicPostseismicDisplacements2005}{{73}{2005}{{Jade et~al.}}{{Jade, Ananda, Dileep~Kumar and Banerjee}}}
\bibcite{jadeEstimatesCoseismicDisplacement2002a}{{74}{2002}{{Jade et~al.}}{{Jade, Mukul, Parvez, Ananda, Kumar and Gaur}}}
\bibcite{jiangGPSConstrainedCoseismic2014a}{{75}{2014}{{Jiang et~al.}}{{Jiang, Wang, Wang, Wu, Che, Shen, B{\"u}rgmann, Sun, Yang, Liao and Li}}}
\bibcite{jinCoseismicIonosphericDeformation2010}{{76}{2010}{{Jin et~al.}}{{Jin, Zhu and Afraimovich}}}
\bibcite{johnsonFaultGeometrySlip2001}{{77}{2001}{{Johnson et~al.}}{{Johnson, Hsu, Segall and Yu}}}
\bibcite{kaverinaCombinedInversionSeismic2002}{{78}{2002}{{Kaverina et~al.}}{{Kaverina, Dreger and Price}}}
\bibcite{kleinComprehensiveAnalysisIllapel2017}{{79}{2017}{{Klein et~al.}}{{Klein, Vigny, Fleitout, Grandin, Jolivet, Rivera and M{\'e}tois}}}
\bibcite{klotzGPSderivedDeformationCentral1999}{{80}{1999}{{Klotz et~al.}}{{Klotz, Angermann, Michel, Porth, Reigber, Reinking, Viramonte, Perdomo, Rios, Barrientos, Barriga and Cifuentes}}}
\bibcite{koncaRuptureKinematics20052007a}{{81}{2007}{{Konca et~al.}}{{Konca, Hjorleifsdottir, Song, Avouac, Helmberger, Ji, Sieh, Briggs and Meltzner}}}
\bibcite{kreemerGlobalDeformationGreat2006}{{82}{2006a}{{Kreemer et~al.}}{{Kreemer, Blewitt, Hammond and Plag}}}
\bibcite{kreemerCoPostseismicDeformation2006}{{83}{2006b}{{Kreemer et~al.}}{{Kreemer, Blewitt and Maerten}}}
\bibcite{langbeinCoseismicInitialPostseismic2006}{{84}{2006}{{Langbein et~al.}}{{Langbein, Murray and Snyder}}}
\bibcite{larsenGlobalPositioningSystem1992}{{85}{1992}{{Larsen et~al.}}{{Larsen, Reilinger, Neugebauer and Strange}}}
\bibcite{larsonUsing1HzGPS2003}{{86}{2003}{{Larson et~al.}}{{Larson, Bodin and Gomberg}}}
\bibcite{liRealtimeHighrateCoseismic2013a}{{87}{2013}{{Li et~al.}}{{Li, Ge, Zhang, Zhang, Guo, Wang, Klotz and Wickert}}}
\bibcite{liuRuptureFeatures20162017}{{88}{2017}{{Liu et~al.}}{{Liu, Zheng, Xie and Xiong}}}
\bibcite{liuSourceCharacteristics20172019}{{89}{2019}{{Liu et~al.}}{{Liu, Xiong, Wang, Qiao, Ding, Li and Yang}}}
\bibcite{melbourneGeodeticSignatureM81997}{{90}{1997}{{Melbourne et~al.}}{{Melbourne, Carmichael, DeMets, Hudnut, Sanchez, Stock, Suarez and Webb}}}
\bibcite{melgarSeismogeodesy2014Mw62015}{{91}{2015}{{Melgar et~al.}}{{Melgar, Geng, Crowell, Haase, Bock, Hammond and Allen}}}
\bibcite{minsonBayesianInversionFinite2014a}{{92}{2014}{{Minson et~al.}}{{Minson, Simons, Beck, Ortega, Jiang, Owen, Moore, Inbal and Sladen}}}
\bibcite{miuraCoPostseismicSlip2006}{{93}{2006}{{Miura et~al.}}{{Miura, Iinuma, Yui, Uchida, Sato, Tachibana and Hasegawa}}}
\bibcite{miura2003M8TokachiOki2004}{{94}{2004}{{Miura et~al.}}{{Miura, Suwa, Hasegawa and Nishimura}}}
\bibcite{nykolaishenGPSObservationsCrustal2015}{{95}{2015}{{Nykolaishen et~al.}}{{Nykolaishen, Dragert, Wang, James and Schmidt}}}
\bibcite{ohtaLargeSurfaceWave2006}{{96}{2006}{{Ohta et~al.}}{{Ohta, Meilano, Sagiya, Kimata and Hirahara}}}
\bibcite{ohtaCoseismicFaultModel2008}{{97}{2008}{{Ohta et~al.}}{{Ohta, Ohzono, Miura, Iinuma, Tachibana, Takatsuka, Miyao, Sato and Umino}}}
\bibcite{pedersenFaultSlipDistribution2003}{{98}{2003}{{Pedersen et~al.}}{{Pedersen, J{\'o}nsson, {\'A}rnad{\'o}ttir, Sigmundsson and Feigl}}}
\bibcite{perfettiniGeodeticDisplacementsAftershocks2005a}{{99}{2005}{{Perfettini et~al.}}{{Perfettini, Avouac and Ruegg}}}
\bibcite{reilingerCoseismicPostseismicFault2000}{{100}{2000}{{Reilinger et~al.}}{{Reilinger, Ergintav, Burgmann, McClusky, Lenk, Barka, Gurkan, Hearn, Feigl, Cakmak, Aktug, Ozener and Toksoz}}}
\bibcite{rueggMWAntofagastaNorth1996}{{101}{1996}{{Ruegg et~al.}}{{Ruegg, Campos, Armijo, Barrientos, Briole, Thiele, Arancibia, Ca{\~n}uta, Duquesnoy, Chang, Lazo, {Lyon-Caen}, Ortlieb, Rossignol and Serrurier}}}
\bibcite{scognamiglioComplexFaultGeometry2018}{{102}{2018}{{Scognamiglio et~al.}}{{Scognamiglio, Tinti, Casarotti, Pucci, Villani, Cocco, Magnoni, Michelini and Dreger}}}
\bibcite{serpelloniFaultGeometryCoseismicslip2012}{{103}{2012}{{Serpelloni et~al.}}{{Serpelloni, Anderlini and Belardinelli}}}
\bibcite{shestakovAnalysisFarfieldCrustal2012}{{104}{2012}{{Shestakov et~al.}}{{Shestakov, Takahashi, Ohzono, Prytkov, Bykov, Gerasimenko, Luneva, Gerasimov, Kolomiets, Bormotov, Vasilenko, Baek, Park and Serov}}}
\bibcite{stramondoSeptember2619971999}{{105}{1999}{{Stramondo et~al.}}{{Stramondo, Tesauro, Briole, Sansosti, Salvi, Lanari, Anzidei, Baldi, Fornaro, Avallone, Buongiorno, Franceschetti and Boschi}}}
\bibcite{subaryaPlateboundaryDeformationAssociated2006}{{106}{2006}{{Subarya et~al.}}{{Subarya, Chlieh, Prawirodirdjo, Avouac, Bock, Sieh, Meltzner, Natawidjaja and McCaffrey}}}
\bibcite{tiryakiogluSlipDistributionSource2018}{{107}{2018}{{Tiryakio{\u g}lu et~al.}}{{Tiryakio{\u g}lu, Aktu{\u g}, Yi{\u g}it, Yava{\c s}o{\u g}lu, Sozbilir, {\"O}zkaymak, Poyraz, Taneli, Bulut, Do{\u g}ru and {\"O}zener}}}
\bibcite{tsujiCoseismicCrustalDeformation1995}{{108}{1995}{{Tsuji et~al.}}{{Tsuji, Hatanaka, Sagiya and Hashimoto}}}
\bibcite{vignyInsight2004SumatraAndaman2005}{{109}{2005}{{Vigny et~al.}}{{Vigny, Simons, Abu, Bamphenyu, Satirapod, Choosakul, Subarya, Socquet, Omar, Abidin and Ambrosius}}}
\bibcite{vigny2010MwMaule2011}{{110}{2011}{{Vigny et~al.}}{{Vigny, Socquet, Peyrat, Ruegg, M{\'e}tois, Madariaga, Morvan, Lancieri, Lacassin, Campos, Carrizo, {Bejar-Pizarro}, Barrientos, Armijo, Aranda, {Valderas-Bermejo}, Ortega, Bondoux, Baize, {Lyon-Caen}, Pavez, Vilotte, Bevis, Brooks, Smalley, Parra, Baez, Blanco, Cimbaro and Kendrick}}}
\bibcite{wdowinskiSouthernCaliforniaPermanent1997}{{111}{1997}{{Wdowinski et~al.}}{{Wdowinski, Bock, Zhang, Fang and Genrich}}}
\bibcite{yadavCoseismicOffsetsDue2013b}{{112}{2013}{{Yadav et~al.}}{{Yadav, Kundu, Gahalaut, Catherine, Gahalaut, Ambikapthy and Naidu}}}
\bibcite{yagiCoseismicSlipPostseismic2003}{{113}{2003}{{Yagi et~al.}}{{Yagi, Kikuchi and Nishimura}}}
\bibcite{yagiCoseismicSlipPostseismic2001}{{114}{2001}{{Yagi et~al.}}{{Yagi, Kikuchi and Sagiya}}}
\bibcite{yangGeodeticallyObservedSurface2000}{{115}{2000}{{Yang et~al.}}{{Yang, Rau, Yu and Yu}}}
\bibcite{yellesCoseismicDeformationMay2004a}{{116}{2004}{{Yelles et~al.}}{{Yelles, Lammali, Mahsas, Calais and Briole}}}
\bibcite{yuPreseismicDeformationCoseismic2001}{{117}{2001}{{Yu et~al.}}{{Yu, Kuo, Hsu, Su, Liu, Hou, Lee, Lai, Liu, Liu, Tseng, Tsai and Shin}}}
\bibcite{yue2016KumamotoMw2017}{{118}{2017}{{Yue et~al.}}{{Yue, Ross, Liang, Michel, Fattahi, Fielding, Moore, Liu and Jia}}}
\bibcite{zhouGeodeticObservationsDetecting2012}{{119}{2012}{{Zhou et~al.}}{{Zhou, Sun, Zhao, Fu, Dong and Nie}}}
